waveform/arbiter.vcd
$date
	Mon Jul 06 10:55:15 2026
$end
$version
	Icarus Verilog
$end
$timescale
	1s
$end
$scope module arbiter_tb $end
$var wire 4 ! grant [3:0] $end
$var wire 1 " PREADY $end
$var wire 32 # PRDATA [31:0] $end
$var reg 8 $ PADDR [7:0] $end
$var reg 1 % PENABLE $end
$var reg 1 & PSEL $end
$var reg 32 ' PWDATA [31:0] $end
$var reg 1 ( PWRITE $end
$var reg 1 ) clk $end
$var reg 4 * req [3:0] $end
$var reg 1 + reset $end
$scope module uut $end
$var wire 8 , PADDR [7:0] $end
$var wire 1 % PENABLE $end
$var wire 1 & PSEL $end
$var wire 32 - PWDATA [31:0] $end
$var wire 1 ( PWRITE $end
$var wire 1 ) clk $end
$var wire 4 . req [3:0] $end
$var wire 1 + reset $end
$var reg 32 / PRDATA [31:0] $end
$var reg 1 " PREADY $end
$var reg 3 0 active_requests [2:0] $end
$var reg 4 1 age_limit_reg [3:0] $end
$var reg 2 2 aged_request [1:0] $end
$var reg 1 3 aged_request_found $end
$var reg 1 4 congestion $end
$var reg 2 5 congestion_level [1:0] $end
$var reg 3 6 congestion_threshold_reg [2:0] $end
$var reg 4 7 grant [3:0] $end
$var reg 1 8 high_pri_found $end
$var reg 2 9 high_pri_request [1:0] $end
$var reg 2 : highest_priority [1:0] $end
$var reg 2 ; next_pointer [1:0] $end
$var reg 2 < pointer [1:0] $end
$var reg 4 = same_pri_req [3:0] $end
$var reg 32 > starvation_events [31:0] $end
$var reg 32 ? total_grants [31:0] $end
$var reg 32 @ total_requests [31:0] $end
$var integer 32 A i [31:0] $end
$upscope $end
$scope task apb_read $end
$var reg 8 B addr [7:0] $end
$upscope $end
$scope task apb_write $end
$var reg 8 C addr [7:0] $end
$var reg 32 D data [31:0] $end
$upscope $end
$upscope $end
$enddefinitions $end
$comment Show the parameter values. $end
$dumpall
$end
#0
$dumpvars
bx D
bx C
bx B
b100 A
b0 @
b0 ?
b0 >
b0 =
b0 <
b0 ;
b0 :
b0 9
08
b0 7
b11 6
b0 5
04
03
b0 2
b1000 1
b0 0
b0 /
b0 .
b0 -
b0 ,
1+
b0 *
0)
0(
b0 '
0&
0%
b0 $
b0 #
1"
b0 !
$end
#5
b100 A
1)
#10
b1 ;
b1 !
b1 7
b1 =
b11 :
18
b10 5
14
b100 0
0)
b1111 *
b1111 .
0+
#15
b10 5
14
b100 0
b1 !
b1 7
b1 ?
b100 @
b1 <
b100 A
1)
#20
0)
#25
b10 ?
b1000 @
b100 A
1)
#30
0)
#35
b11 ?
b1100 @
b100 A
1)
#40
0)
#45
b100 ?
b10000 @
b100 A
1)
#50
0)
#55
b101 ?
b10100 @
b100 A
1)
#60
0)
#65
b110 ?
b11000 @
b100 A
1)
#70
0)
b11000 B
#75
b111 ?
b11100 @
b11100 #
b11100 /
b100 A
b11000 $
b11000 ,
1%
1&
1)
#80
0)
#85
b10 ;
b10 5
14
b100 0
b10 !
b10 7
b1 2
13
b1000 ?
b100000 @
b0 #
b0 /
b100 A
b11100 B
0%
0&
1)
#90
0)
#95
b11 ;
b10 5
14
b100 0
b100 !
b100 7
b10 2
13
b1 >
b1001 ?
b100100 @
b10 <
b1001 #
b1001 /
b100 A
b11100 $
b11100 ,
1%
1&
1)
#100
0)
#105
b0 ;
b11 2
13
b10 5
14
b100 0
b1000 !
b1000 7
b10 >
b1010 ?
b101000 @
b11 <
b0 #
b0 /
b100 A
b100000 B
0%
0&
1)
#110
0)
#115
b1 ;
b10 5
14
b100 0
b1 !
b1 7
b0 2
03
b11 >
b1011 ?
b101100 @
b0 <
b11 #
b11 /
b100 A
b100000 $
b100000 ,
1%
1&
1)
#120
0)
#125
b10 5
14
b100 0
b1 !
b1 7
b1100 ?
b110000 @
b1 <
b0 #
b0 /
b100 A
b100100 B
0%
0&
1)
#130
0)
#135
b1101 ?
b110100 @
b1010 #
b1010 /
b100 A
b100100 $
b100100 ,
1%
1&
1)
#140
0)
#145
b1110 ?
b111000 @
b0 #
b0 /
b100 A
b101000 B
0%
0&
1)
#150
0)
#155
b1111 ?
b111100 @
b1 #
b1 /
b100 A
b101000 $
b101000 ,
1%
1&
1)
#160
0)
#165
b10000 ?
b1000000 @
b0 #
b0 /
b100 A
b101100 B
0%
0&
1)
#170
0)
#175
b10 ;
b10 5
14
b100 0
b10 !
b10 7
b1 2
13
b10001 ?
b1000100 @
b1 #
b1 /
b100 A
b101100 $
b101100 ,
1%
1&
1)
#180
0)
#185
b11 ;
b10 2
13
b10 5
14
b100 0
b100 !
b100 7
b100 >
b10010 ?
b1001000 @
b10 <
b0 #
b0 /
b100 A
b110000 B
0%
0&
1)
#190
0)
#195
b0 ;
b10 5
14
b100 0
b1000 !
b1000 7
b11 2
13
b101 >
b10011 ?
b1001100 @
b11 <
b1 #
b1 /
b100 A
b110000 $
b110000 ,
1%
1&
1)
#200
0)
#205
b1 ;
b0 2
03
b10 5
14
b100 0
b1 !
b1 7
b110 >
b10100 ?
b1010000 @
b0 <
b0 #
b0 /
b100 A
b1 D
b0 C
0%
0&
1)
#210
0)
#215
b10 ;
b10 5
14
b100 0
b10 !
b10 7
b10 =
b1 9
b10 :
18
b10101 ?
b1010100 @
b1 <
b100 A
b1 '
b1 -
b0 $
b0 ,
1(
1%
1&
1)
#220
0)
#225
b10 5
14
b100 0
b10 !
b10 7
b10110 ?
b1011000 @
b10 <
b100 A
b11 D
b100 C
0(
0%
0&
1)
#230
0)
#235
b10 5
14
b100 0
b10 !
b10 7
b10 =
b11 :
b1 9
18
b10111 ?
b1011100 @
b100 A
b11 '
b11 -
b100 $
b100 ,
1(
1%
1&
1)
#240
0)
#245
b11000 ?
b1100000 @
b100 A
b10 D
b1000 C
0(
0%
0&
1)
#250
0)
#255
b10 5
14
b100 0
b10 !
b10 7
b10 =
b11 :
b1 9
18
b11001 ?
b1100100 @
b100 A
b10 '
b10 -
b1000 $
b1000 ,
1(
1%
1&
1)
#260
0)
#265
b11010 ?
b1101000 @
b100 A
b0 D
b1100 C
0(
0%
0&
1)
#270
0)
#275
b11 ;
b10 5
14
b100 0
b100 !
b100 7
b10 2
13
b11011 ?
b1101100 @
b100 A
b0 '
b0 -
b1100 $
b1100 ,
1(
1%
1&
1)
#280
0)
#285
b0 ;
b11 2
13
b10 5
14
b100 0
b1000 !
b1000 7
b111 >
b11100 ?
b1110000 @
b11 <
b100 A
b0 B
0(
0%
0&
1)
#290
0)
#295
b1 ;
b10 5
14
b100 0
b1 !
b1 7
b0 2
13
b1000 >
b11101 ?
b1110100 @
b0 <
b1 #
b1 /
b100 A
b0 $
b0 ,
1%
1&
1)
#300
0)
#305
b10 ;
03
b10 5
14
b100 0
b10 !
b10 7
b1001 >
b11110 ?
b1111000 @
b1 <
b0 #
b0 /
b100 A
b100 B
0%
0&
1)
#310
0)
#315
b10 5
14
b100 0
b10 !
b10 7
b11111 ?
b1111100 @
b10 <
b11 #
b11 /
b100 A
b100 $
b100 ,
1%
1&
1)
#320
0)
#325
b100000 ?
b10000000 @
b0 #
b0 /
b100 A
b1000 B
0%
0&
1)
#330
0)
#335
b100001 ?
b10000100 @
b10 #
b10 /
b100 A
b1000 $
b1000 ,
1%
1&
1)
#340
0)
#345
b100010 ?
b10001000 @
b0 #
b0 /
b100 A
b1100 B
0%
0&
1)
#350
0)
#355
b100011 ?
b10001100 @
b100 A
b1100 $
b1100 ,
1%
1&
1)
#360
0)
#365
b11 ;
b10 5
14
b100 0
b100 !
b100 7
b10 2
13
b100100 ?
b10010000 @
b100 A
b1100 D
b10000 C
0%
0&
1)
#370
0)
#375
b10 ;
b10 5
14
b100 0
b10 !
b10 7
b0 2
03
b1010 >
b100101 ?
b10010100 @
b11 <
b1100 1
b100 A
b1100 '
b1100 -
b10000 $
b10000 ,
1(
1%
1&
1)
#380
0)
#385
b10 5
14
b100 0
b10 !
b10 7
b100110 ?
b10011000 @
b10 <
b100 A
b10000 B
0(
0%
0&
1)
#390
0)
#395
b100111 ?
b10011100 @
b1100 #
b1100 /
b100 A
1%
1&
1)
#400
0)
#405
b101000 ?
b10100000 @
b0 #
b0 /
b100 A
b10 D
b10100 C
0%
0&
1)
#410
0)
#415
b0 ;
b10 5
14
b100 0
b1000 !
b1000 7
b11 2
13
b101001 ?
b10100100 @
b10 6
b100 A
b10 '
b10 -
b10100 $
b10100 ,
1(
1%
1&
1)
#420
0)
#425
b1 ;
b0 2
13
b10 5
14
b100 0
b1 !
b1 7
b1011 >
b101010 ?
b10101000 @
b0 <
b100 A
b10100 B
0(
0%
0&
1)
#430
0)
#435
b10 ;
b10 5
14
b100 0
b10 !
b10 7
03
b1100 >
b101011 ?
b10101100 @
b1 <
b10 #
b10 /
b100 A
1%
1&
1)
#440
0)
#445
b10 5
14
b100 0
b10 !
b10 7
b101100 ?
b10110000 @
b10 <
b0 #
b0 /
b100 A
b1 D
b110100 C
0%
0&
1)
#450
0)
#455
b0 >
b0 ?
b0 @
b100 A
b1 '
b1 -
b110100 $
b110100 ,
1(
1%
1&
1)
#460
0)
#465
b1 ?
b100 @
b100 A
b11000 B
0(
0%
0&
1)
#470
0)
#475
b10 ?
b1000 @
b1000 #
b1000 /
b100 A
b11000 $
b11000 ,
1%
1&
1)
#480
0)
#485
b11 ?
b1100 @
b0 #
b0 /
b100 A
b11100 B
0%
0&
1)
#490
0)
#495
b11 ;
b10 5
14
b100 0
b100 !
b100 7
b10 2
13
b100 ?
b10000 @
b100 #
b100 /
b100 A
b11100 $
b11100 ,
1%
1&
1)
#500
0)
#505
b10 ;
b0 2
03
b10 5
14
b100 0
b10 !
b10 7
b1 >
b101 ?
b10100 @
b11 <
b0 #
b0 /
b100 A
b100000 B
0%
0&
1)
#510
0)
#515
b10 5
14
b100 0
b10 !
b10 7
b110 ?
b11000 @
b10 <
b1 #
b1 /
b100 A
b100000 $
b100000 ,
1%
1&
1)
#520
0)
#525
b111 ?
b11100 @
b0 #
b0 /
b100 A
b100100 B
0%
0&
1)
#530
0)
#535
b1000 ?
b100000 @
b100 A
b100100 $
b100100 ,
1%
1&
1)
#540
0)
#545
b0 ;
b10 5
14
b100 0
b1000 !
b1000 7
b11 2
13
b1001 ?
b100100 @
b100 A
b101000 B
0%
0&
1)
#550
0)
#555
b1 ;
b10 5
14
b100 0
b1 !
b1 7
b0 2
13
b10 >
b1010 ?
b101000 @
b0 <
b1000 #
b1000 /
b100 A
b101000 $
b101000 ,
1%
1&
1)
#560
0)
#565
b10 ;
03
b10 5
14
b100 0
b10 !
b10 7
b11 >
b1011 ?
b101100 @
b1 <
b0 #
b0 /
b100 A
b101100 B
0%
0&
1)
#570
0)
#575
b10 5
14
b100 0
b10 !
b10 7
b1100 ?
b110000 @
b10 <
b1 #
b1 /
b100 A
b101100 $
b101100 ,
1%
1&
1)
#580
0)
#585
b1101 ?
b110100 @
b0 #
b0 /
b100 A
b110000 B
0%
0&
1)
#590
0)
#595
b1110 ?
b111000 @
b1 #
b1 /
b100 A
b110000 $
b110000 ,
1%
1&
1)
#600
0)
#605
b1111 ?
b111100 @
b0 #
b0 /
b100 A
0%
0&
1)
#610
0)
#615
b10000 ?
b1000000 @
b100 A
1)
#620
0)
#625
b11 ;
b10 5
14
b100 0
b100 !
b100 7
b10 2
13
b10001 ?
b1000100 @
b100 A
1)
